Лабораторна робота №2
…
З нього ми визначемо залежну змінну - Sepal.Width і незалежну змінну - Sepal.Length

1.1 Впорядковуємо дані для нашої задачі

Код

W_H <- iris %>%
  select(-Petal.Length,-Petal.Width)
tibble(W_H)
## # A tibble: 150 × 3
##    Sepal.Length Sepal.Width Species
##           <dbl>       <dbl> <fct>  
##  1          5.1         3.5 setosa 
##  2          4.9         3   setosa 
##  3          4.7         3.2 setosa 
##  4          4.6         3.1 setosa 
##  5          5           3.6 setosa 
##  6          5.4         3.9 setosa 
##  7          4.6         3.4 setosa 
##  8          5           3.4 setosa 
##  9          4.4         2.9 setosa 
## 10          4.9         3.1 setosa 
## # … with 140 more rows
…
